Educative Interventions to Combat Misinformation: Evidence from a Field Experiment in India. – Home
…
[1] 1224

Code

n_distinct(long_d$Serial.No.) # likely the correct variable

[1] 1224

Code

long_d %>% 
  group_by(Serial.No) %>% 
  count() # second check, 14 observations

# A tibble: 1,224 × 2
# Groups:   Serial.No [1,224]
   Serial.No     n
       <dbl> <int>
 1         1    14
 2         2    14
 3         4    14
 4         9    14
 5        10    14
 6        12    14
 7        13    14
 8        14    14
 9        16    14
10        17    14
# ℹ 1,214 more rows
…
