Emotion May Predict Susceptibility to Fake News but Emotion Regulation Does Not Seem to Help. – Home
…
Code

d2 <- d2 |> 
  mutate(accuracy_raw = perceived_accu, 
         scale = "binary")

news_id, recycled_news, recycled_news_reference

Code

d2 |> 
  group_by(item) |> 
  count()

# A tibble: 24 × 2
# Groups:   item [24]
    item     n
   <dbl> <int>
 1     1   674
 2     2   673
 3     3   671
 4     4   671
 5     5   668
 6     6   671
 7     7   666
 8     8   673
 9     9   670
10    10   673
# ℹ 14 more rows
…
