People Are Skeptical of Headlines Labeled as AI-Generated, Even If True or Human-Made, Because They Assume Full AI Automation. – Home
…
Read data and inspect key variables.

Code

d <- read_excel("Altay_2023-study_1.xlsx")

# inspect key variables to get an overview
d |> 
  select(PROLIFIC_PID, True_False, AI_Human, Condition, Conditions, DV, Ratings, News_number) |> 
  arrange(PROLIFIC_PID)

# A tibble: 31,536 × 8
   PROLIFIC_PID           True_False AI_Human Condition Conditions DV    Ratings
   <chr>                  <chr>      <chr>    <chr>     <chr>      <chr>   <dbl>
 1 54846df3fdf99b0379939… false      AI       FalseLab… FalseLabel Accu…       2
 2 54846df3fdf99b0379939… true       AI       FalseLab… FalseLabel Accu…       5
 3 54846df3fdf99b0379939… false      AI       FalseLab… FalseLabel Accu…       2
 4 54846df3fdf99b0379939… true       AI       FalseLab… FalseLabel Accu…       5
 5 54846df3fdf99b0379939… false      AI       FalseLab… FalseLabel Accu…       2
 6 54846df3fdf99b0379939… true       AI       FalseLab… FalseLabel Accu…       5
 7 54846df3fdf99b0379939… false      AI       FalseLab… FalseLabel Accu…       2
 8 54846df3fdf99b0379939… true       AI       FalseLab… FalseLabel Accu…       6
 9 54846df3fdf99b0379939… false      human    FalseLab… FalseLabel Accu…       2
10 54846df3fdf99b0379939… true       human    FalseLab… FalseLabel Accu…       6
# ℹ 31,526 more rows
# ℹ 1 more variable: News_number <dbl>
…
