Real Solutions for Fake News? Measuring the Effectiveness of General Warnings and Fact-Check Tags in Reducing Belief in False Stories on Social Media. – Home
…
data <- table

Interventions

We first need to indentiy the different experimental conditions. This is a bit tricky because the documentation is bad.

Code

# cross-reading paper and stata code, these seem to be the relevant variables for condition
data %>% 
  select(cond, nocorr_condition, disputed_condition, false_condition, 
                   flag_cond, purecontrol, warning, nowarning)

# A tibble: 2,994 × 8
    cond nocorr_condition disputed_condition false_condition flag_cond 
   <dbl>            <dbl>              <dbl>           <dbl> <hvn_lbll>
 1     4                0                  1               0  2        
 2     2                1                  0               0  1        
 3     5                0                  1               0  2        
 4     1                0                  0               0 NA        
 5     4                0                  1               0  2        
 6     3                1                  0               0  1        
 7     2                1                  0               0  1        
 8     2                1                  0               0  1        
 9     1                0                  0               0 NA        
10     4                0                  1               0  2        
# ℹ 2,984 more rows
# ℹ 3 more variables: purecontrol <dbl>, warning <dbl>, nowarning <dbl>
…
Veracity

As a next step, we need to identify which variables code instances of news ratings

Code

# trying to identify news ratings  
data %>% select(belief_old_fake_news, belief_real_news, real_civil_war_belief,
                 real_syria_belief, real_gorsuch_belief, draft_belief, bee_belief, 
                 chaf_belief, protester_belief, marines_belief, fbiagent_belief) 

# A tibble: 2,994 × 11
   belief_old_fake_news belief_real_news real_civil_war_belief real_syria_belief
                  <dbl>            <dbl>                 <dbl>             <dbl>
 1                 1.75             2.60                     3                 3
 2                 2.75             3.60                     3                 4
 3                 1.25             4                        3                 3
 4                 2                3.60                     2                 3
 5                 1.75             3.20                     3                 4
 6                 1                4                        3                 4
 7                 2                4                        3                 4
 8                 2.25             3.20                     2                 4
 9                 2                3.80                     2                 2
10                 2.25             2.80                     1                 4
# ℹ 2,984 more rows
# ℹ 7 more variables: real_gorsuch_belief <dbl>, draft_belief <dbl>,
#   bee_belief <dbl>, chaf_belief <dbl>, protester_belief <dbl>,
#   marines_belief <dbl>, fbiagent_belief <dbl>
…
