A Digital Media Literacy Intervention Increases Discernment Between Mainstream and False News in the United States and India. – Home
…
d_long <- d_long |> 
  mutate(partisan_identity = tolower(as_factor(pid3)),
         # make everything that is not democrat or republican NA
         partisan_identity = ifelse(partisan_identity %in% c("democrat", "republican"), 
                                    partisan_identity, 
                                    NA),
         # Make concordance variable
         concordance = ifelse(partisan_identity == news_slant, "concordant", "discordant")
  )

# check
d_long |> 
  select(partisan_identity, pid3, news_slant, concordance)

# A tibble: 58,884 × 4
   partisan_identity pid3            news_slant concordance
   <chr>             <dbl+lbl>       <chr>      <chr>      
 1 <NA>              3 [Independent] democrat   <NA>       
 2 <NA>              3 [Independent] democrat   <NA>       
 3 <NA>              3 [Independent] republican <NA>       
 4 <NA>              3 [Independent] republican <NA>       
 5 <NA>              3 [Independent] democrat   <NA>       
 6 <NA>              3 [Independent] democrat   <NA>       
 7 <NA>              3 [Independent] democrat   <NA>       
 8 <NA>              3 [Independent] democrat   <NA>       
 9 <NA>              3 [Independent] republican <NA>       
10 <NA>              3 [Independent] republican <NA>       
# ℹ 58,874 more rows
…
We calculate the average time between these.

Code

# May 16 − April 24 = 22 days
average_time_elapsed <- 22

Check the different news_ids.

Code

d_long |> 
  distinct(news_id)

# A tibble: 28 × 1
   news_id           
   <chr>             
 1 _modi_stone       
 2 _gandhi_pune      
 3 _india_jobs       
 4 _congress_riots   
 5 _modi_kumbh       
 6 _congress_pakistan
 7 _modi_court       
 8 _blair_gandhi     
 9 _iaf_pakistan     
10 _water_pakistan   
# ℹ 18 more rows
…
# check
d_long |>
  group_by(news_id, veracity, news_slant) |>
  summarize(mean(accuracy_raw, na.rm=TRUE))

`summarise()` has grouped output by 'news_id', 'veracity'. You can override
using the `.groups` argument.

# A tibble: 28 × 4
# Groups:   news_id, veracity [28]
   news_id            veracity news_slant  `mean(accuracy_raw, na.rm = TRUE)`
   <chr>              <chr>    <chr>                                    <dbl>
 1 _blair_gandhi      false    Anti-BJP                                  2.09
 2 _congress_pakistan false    Pro-BJP                                   2.21
 3 _congress_riots    true     Anti-BJP                                  2.50
 4 _gandhi_pune       true     Pro-BJP                                   2.67
 5 _iaf_pakistan      true     Nationalist                               2.91
 6 _india_jobs        true     Anti-BJP                                  2.61
 7 _kashmir_hindu     false    Nationalist                               2.56
 8 _modi_court        false    Anti-BJP                                  2.14
 9 _modi_kumbh        false    Pro-BJP                                   2.62
10 _modi_stone        true     Pro-BJP                                   2.81
# ℹ 18 more rows
…
