Timing Matters When Correcting Fake News. – Home
…
# check
# brashier_2021 |>
#   group_by(paper_id, experiment_id) |>
#   summarize(n_observations = n()) 

Since in both studies the same news have been used (with the same labels), we can just keep the labels

Code

brashier_2021 |> 
  group_by(news_id) |> 
  count()

# A tibble: 36 × 2
# Groups:   news_id [36]
   news_id      n
   <chr>    <int>
 1 false_1   3267
 2 false_10  3267
 3 false_11  3268
 4 false_12  3267
 5 false_13  3266
 6 false_14  3267
 7 false_15  3268
 8 false_16  3266
 9 false_17  3266
10 false_18  3268
# ℹ 26 more rows
…
